\relax 
\providecommand\hyper@newdestlabel[2]{}
\providecommand\HyperFirstAtBeginDocument{\AtBeginDocument}
\HyperFirstAtBeginDocument{\ifx\hyper@anchor\@undefined
\global\let\oldcontentsline\contentsline
\gdef\contentsline#1#2#3#4{\oldcontentsline{#1}{#2}{#3}}
\global\let\oldnewlabel\newlabel
\gdef\newlabel#1#2{\newlabelxx{#1}#2}
\gdef\newlabelxx#1#2#3#4#5#6{\oldnewlabel{#1}{{#2}{#3}}}
\AtEndDocument{\ifx\hyper@anchor\@undefined
\let\contentsline\oldcontentsline
\let\newlabel\oldnewlabel
\fi}
\fi}
\global\let\hyper@last\relax 
\gdef\HyperFirstAtBeginDocument#1{#1}
\providecommand\HyField@AuxAddToFields[1]{}
\providecommand\HyField@AuxAddToCoFields[2]{}
\@writefile{toc}{\contentsline {paragraph}{}{1}{paragraph*.1}\protected@file@percent }
\@writefile{toc}{\contentsline {paragraph}{}{1}{paragraph*.2}\protected@file@percent }
\@writefile{toc}{\contentsline {paragraph}{}{2}{paragraph*.3}\protected@file@percent }
\@writefile{toc}{\contentsline {paragraph}{}{2}{paragraph*.4}\protected@file@percent }
\citation{BlockchainStructure}
\citation{StrongHash}
\@writefile{toc}{\contentsline {chapter}{\numberline {1}Introduction}{4}{chapter.1}\protected@file@percent }
\@writefile{lof}{\addvspace {10\p@ }}
\@writefile{lot}{\addvspace {10\p@ }}
\@writefile{toc}{\contentsline {section}{\numberline {1.1}What is Blockchain and Cryptocurrency?}{4}{section.1.1}\protected@file@percent }
\@writefile{toc}{\contentsline {subsection}{\numberline {1.1.1}Blockchain as a database}{4}{subsection.1.1.1}\protected@file@percent }
\@writefile{toc}{\contentsline {paragraph}{}{4}{paragraph*.6}\protected@file@percent }
\@writefile{lof}{\contentsline {figure}{\numberline {1.1}{\ignorespaces Example of a blockchain structure}}{4}{figure.1.1}\protected@file@percent }
\newlabel{fig:blockchain_structure}{{1.1}{4}{Example of a blockchain structure}{figure.1.1}{}}
\citation{HashChain}
\citation{urquhart2017price}
\citation{BlockchainInBtcEx}
\citation{WhatIsBitcoin}
\citation{Whitepaper}
\@writefile{toc}{\contentsline {subsection}{\numberline {1.1.2}The beginnings}{5}{subsection.1.1.2}\protected@file@percent }
\@writefile{toc}{\contentsline {paragraph}{}{5}{paragraph*.7}\protected@file@percent }
\@writefile{toc}{\contentsline {subsection}{\numberline {1.1.3}Cryptocurrency in example of Bitcoin}{5}{subsection.1.1.3}\protected@file@percent }
\@writefile{toc}{\contentsline {paragraph}{}{5}{paragraph*.8}\protected@file@percent }
\@writefile{toc}{\contentsline {paragraph}{}{5}{paragraph*.9}\protected@file@percent }
\citation{1MBblockSize}
\citation{Whitepaper,BlockchainInBtcEx}
\citation{park2019nodes}
\@writefile{toc}{\contentsline {paragraph}{}{6}{paragraph*.10}\protected@file@percent }
\@writefile{toc}{\contentsline {subsection}{\numberline {1.1.4}Blockchain as a decentralized network}{6}{subsection.1.1.4}\protected@file@percent }
\@writefile{toc}{\contentsline {paragraph}{}{6}{paragraph*.11}\protected@file@percent }
\@writefile{toc}{\contentsline {paragraph}{}{6}{paragraph*.12}\protected@file@percent }
\citation{masteringBitcoin}
\@writefile{toc}{\contentsline {paragraph}{}{7}{paragraph*.13}\protected@file@percent }
\citation{WikiTransaction,masteringBitcoin}
\@writefile{toc}{\contentsline {section}{\numberline {1.2}What is a blockchain transaction? Public and private key}{8}{section.1.2}\protected@file@percent }
\@writefile{toc}{\contentsline {subsection}{\numberline {1.2.1}Blockchain transaction}{8}{subsection.1.2.1}\protected@file@percent }
\@writefile{toc}{\contentsline {paragraph}{}{8}{paragraph*.14}\protected@file@percent }
\@writefile{toc}{\contentsline {paragraph}{}{8}{paragraph*.15}\protected@file@percent }
\@writefile{lof}{\contentsline {figure}{\numberline {1.2}{\ignorespaces Transaction with one output, when the whole value of inputs is spent}}{9}{figure.1.2}\protected@file@percent }
\@writefile{lof}{\contentsline {figure}{\numberline {1.3}{\ignorespaces Transaction with two outputs, when the remaining value of inputs comes back to payer address}}{9}{figure.1.3}\protected@file@percent }
\@writefile{toc}{\contentsline {subsection}{\numberline {1.2.2}Public and private key}{9}{subsection.1.2.2}\protected@file@percent }
\@writefile{toc}{\contentsline {paragraph}{}{9}{paragraph*.16}\protected@file@percent }
\@writefile{toc}{\contentsline {paragraph}{}{9}{paragraph*.17}\protected@file@percent }
\citation{ElectrumMerchant}
\citation{sommer2019processing}
\@writefile{toc}{\contentsline {paragraph}{}{10}{paragraph*.18}\protected@file@percent }
\@writefile{toc}{\contentsline {paragraph}{}{10}{paragraph*.19}\protected@file@percent }
\@writefile{toc}{\contentsline {section}{\numberline {1.3}Cryptocurrency exchanges and blockchain transaction processing}{10}{section.1.3}\protected@file@percent }
\@writefile{toc}{\contentsline {paragraph}{}{10}{paragraph*.20}\protected@file@percent }
\citation{ExchangeHacks}
\@writefile{toc}{\contentsline {section}{\numberline {1.4}Why a safe system is required for private key storage}{11}{section.1.4}\protected@file@percent }
\@writefile{toc}{\contentsline {paragraph}{}{11}{paragraph*.21}\protected@file@percent }
\@writefile{toc}{\contentsline {paragraph}{}{11}{paragraph*.22}\protected@file@percent }
\@writefile{toc}{\contentsline {paragraph}{}{11}{paragraph*.23}\protected@file@percent }
\citation{ethBlockchainSize}
\citation{masteringEthereum,ethYellowPaper}
\@writefile{toc}{\contentsline {section}{\numberline {1.5}Other cryptocurrencies and blockchain systems}{12}{section.1.5}\protected@file@percent }
\@writefile{toc}{\contentsline {paragraph}{}{12}{paragraph*.24}\protected@file@percent }
\@writefile{toc}{\contentsline {subsection}{\numberline {1.5.1}Ethereum}{12}{subsection.1.5.1}\protected@file@percent }
\@writefile{toc}{\contentsline {paragraph}{}{12}{paragraph*.25}\protected@file@percent }
\@writefile{toc}{\contentsline {paragraph}{}{12}{paragraph*.26}\protected@file@percent }
\citation{golemWhitepaper}
\@writefile{toc}{\contentsline {subsection}{\numberline {1.5.2}Golem Network}{13}{subsection.1.5.2}\protected@file@percent }
\@writefile{toc}{\contentsline {paragraph}{}{13}{paragraph*.27}\protected@file@percent }
\@writefile{toc}{\contentsline {section}{\numberline {1.6}Contains of transaction request}{13}{section.1.6}\protected@file@percent }
\@writefile{toc}{\contentsline {paragraph}{}{13}{paragraph*.28}\protected@file@percent }
\@writefile{toc}{\contentsline {paragraph}{}{13}{paragraph*.29}\protected@file@percent }
\@writefile{toc}{\contentsline {paragraph}{}{14}{paragraph*.30}\protected@file@percent }
\@writefile{toc}{\contentsline {paragraph}{}{14}{paragraph*.31}\protected@file@percent }
\@writefile{toc}{\contentsline {chapter}{\numberline {2}Solution}{15}{chapter.2}\protected@file@percent }
\@writefile{lof}{\addvspace {10\p@ }}
\@writefile{lot}{\addvspace {10\p@ }}
\@writefile{toc}{\contentsline {section}{\numberline {2.1}Introduction}{15}{section.2.1}\protected@file@percent }
\@writefile{toc}{\contentsline {paragraph}{}{15}{paragraph*.32}\protected@file@percent }
\@writefile{toc}{\contentsline {section}{\numberline {2.2}Other cryptocurrencies and types of wallets}{16}{section.2.2}\protected@file@percent }
\@writefile{toc}{\contentsline {paragraph}{}{16}{paragraph*.33}\protected@file@percent }
\@writefile{toc}{\contentsline {paragraph}{}{16}{paragraph*.34}\protected@file@percent }
\@writefile{toc}{\contentsline {section}{\numberline {2.3}System architecture}{17}{section.2.3}\protected@file@percent }
\@writefile{toc}{\contentsline {subsection}{\numberline {2.3.1}Order of operation}{17}{subsection.2.3.1}\protected@file@percent }
\@writefile{toc}{\contentsline {paragraph}{}{17}{paragraph*.35}\protected@file@percent }
\@writefile{lof}{\contentsline {figure}{\numberline {2.1}{\ignorespaces System architecture diagram}}{17}{figure.2.1}\protected@file@percent }
\newlabel{fig:architecutre_diagram}{{2.1}{17}{System architecture diagram}{figure.2.1}{}}
\@writefile{toc}{\contentsline {subsection}{\numberline {2.3.2}Message types}{18}{subsection.2.3.2}\protected@file@percent }
\@writefile{toc}{\contentsline {paragraph}{}{18}{paragraph*.36}\protected@file@percent }
\@writefile{toc}{\contentsline {paragraph}{}{18}{paragraph*.37}\protected@file@percent }
\@writefile{toc}{\contentsline {subsubsection}{Request Message}{18}{subsubsection*.38}\protected@file@percent }
\@writefile{toc}{\contentsline {paragraph}{}{18}{paragraph*.39}\protected@file@percent }
\@writefile{toc}{\contentsline {subsubsection}{Response Message}{18}{subsubsection*.40}\protected@file@percent }
\@writefile{toc}{\contentsline {paragraph}{}{18}{paragraph*.41}\protected@file@percent }
\@writefile{lof}{\contentsline {figure}{\numberline {2.2}{\ignorespaces Request Message structure}}{19}{figure.2.2}\protected@file@percent }
\newlabel{fig:request_msg}{{2.2}{19}{Request Message structure}{figure.2.2}{}}
\@writefile{lof}{\contentsline {figure}{\numberline {2.3}{\ignorespaces Response Message structure}}{20}{figure.2.3}\protected@file@percent }
\newlabel{fig:response_msg}{{2.3}{20}{Response Message structure}{figure.2.3}{}}
\@writefile{toc}{\contentsline {subsection}{\numberline {2.3.3}Key processing}{20}{subsection.2.3.3}\protected@file@percent }
\@writefile{toc}{\contentsline {subsubsection}{The way of private key hiding}{20}{subsubsection*.42}\protected@file@percent }
\@writefile{toc}{\contentsline {paragraph}{}{20}{paragraph*.43}\protected@file@percent }
\@writefile{toc}{\contentsline {subsubsection}{Private key processing on processor side}{21}{subsubsection*.44}\protected@file@percent }
\@writefile{toc}{\contentsline {paragraph}{}{21}{paragraph*.45}\protected@file@percent }
\@writefile{toc}{\contentsline {paragraph}{}{21}{paragraph*.46}\protected@file@percent }
\@writefile{toc}{\contentsline {subsubsection}{Key processing on exchange side}{21}{subsubsection*.47}\protected@file@percent }
\@writefile{toc}{\contentsline {paragraph}{}{21}{paragraph*.48}\protected@file@percent }
\@writefile{lof}{\contentsline {figure}{\numberline {2.4}{\ignorespaces Key processing scheme}}{22}{figure.2.4}\protected@file@percent }
\newlabel{fig:key_processing}{{2.4}{22}{Key processing scheme}{figure.2.4}{}}
\@writefile{lof}{\contentsline {figure}{\numberline {2.5}{\ignorespaces Key refresh scheme}}{23}{figure.2.5}\protected@file@percent }
\newlabel{fig:key_refresh}{{2.5}{23}{Key refresh scheme}{figure.2.5}{}}
\@writefile{toc}{\contentsline {section}{\numberline {2.4}Implementation}{23}{section.2.4}\protected@file@percent }
\@writefile{toc}{\contentsline {paragraph}{}{23}{paragraph*.49}\protected@file@percent }
\@writefile{toc}{\contentsline {subsection}{\numberline {2.4.1}Noisy file processing}{23}{subsection.2.4.1}\protected@file@percent }
\@writefile{toc}{\contentsline {paragraph}{}{23}{paragraph*.50}\protected@file@percent }
\@writefile{toc}{\contentsline {paragraph}{}{24}{paragraph*.51}\protected@file@percent }
\@writefile{toc}{\contentsline {paragraph}{}{24}{paragraph*.52}\protected@file@percent }
\@writefile{toc}{\contentsline {paragraph}{}{25}{paragraph*.53}\protected@file@percent }
\@writefile{toc}{\contentsline {subsection}{\numberline {2.4.2}Communication}{25}{subsection.2.4.2}\protected@file@percent }
\@writefile{toc}{\contentsline {paragraph}{}{25}{paragraph*.54}\protected@file@percent }
\@writefile{toc}{\contentsline {paragraph}{}{28}{paragraph*.55}\protected@file@percent }
\@writefile{toc}{\contentsline {paragraph}{}{29}{paragraph*.56}\protected@file@percent }
\@writefile{toc}{\contentsline {paragraph}{}{30}{paragraph*.57}\protected@file@percent }
\@writefile{toc}{\contentsline {paragraph}{}{32}{paragraph*.58}\protected@file@percent }
\@writefile{toc}{\contentsline {subsection}{\numberline {2.4.3}Cryptocurrency wallet manager}{32}{subsection.2.4.3}\protected@file@percent }
\@writefile{toc}{\contentsline {paragraph}{}{32}{paragraph*.59}\protected@file@percent }
\@writefile{toc}{\contentsline {section}{\numberline {2.5}Availability, purpose and license}{34}{section.2.5}\protected@file@percent }
\@writefile{toc}{\contentsline {paragraph}{}{34}{paragraph*.60}\protected@file@percent }
\@writefile{toc}{\contentsline {paragraph}{}{34}{paragraph*.61}\protected@file@percent }
\@writefile{toc}{\contentsline {paragraph}{}{34}{paragraph*.62}\protected@file@percent }
\@writefile{toc}{\contentsline {paragraph}{}{34}{paragraph*.63}\protected@file@percent }
\@writefile{toc}{\contentsline {chapter}{\numberline {3}Environment preparation}{35}{chapter.3}\protected@file@percent }
\@writefile{lof}{\addvspace {10\p@ }}
\@writefile{lot}{\addvspace {10\p@ }}
\@writefile{toc}{\contentsline {section}{\numberline {3.1}Machine selection}{35}{section.3.1}\protected@file@percent }
\@writefile{toc}{\contentsline {paragraph}{}{35}{paragraph*.64}\protected@file@percent }
\@writefile{toc}{\contentsline {section}{\numberline {3.2}Electrum installation}{35}{section.3.2}\protected@file@percent }
\@writefile{toc}{\contentsline {paragraph}{}{35}{paragraph*.65}\protected@file@percent }
\citation{cryptosteel}
\citation{aboutPasswords}
\@writefile{toc}{\contentsline {section}{\numberline {3.3}Electrum wallet preparation}{36}{section.3.3}\protected@file@percent }
\@writefile{toc}{\contentsline {paragraph}{}{36}{paragraph*.66}\protected@file@percent }
\@writefile{toc}{\contentsline {paragraph}{}{36}{paragraph*.67}\protected@file@percent }
\@writefile{toc}{\contentsline {paragraph}{}{36}{paragraph*.68}\protected@file@percent }
\@writefile{lof}{\contentsline {figure}{\numberline {3.1}{\ignorespaces Seed generated by Electrum during wallet creation}}{37}{figure.3.1}\protected@file@percent }
\newlabel{fig:seed_electrum}{{3.1}{37}{Seed generated by Electrum during wallet creation}{figure.3.1}{}}
\@writefile{toc}{\contentsline {section}{\numberline {3.4}Password creation}{37}{section.3.4}\protected@file@percent }
\@writefile{toc}{\contentsline {paragraph}{}{37}{paragraph*.69}\protected@file@percent }
\@writefile{toc}{\contentsline {section}{\numberline {3.5}Storage of the password}{38}{section.3.5}\protected@file@percent }
\@writefile{toc}{\contentsline {paragraph}{}{38}{paragraph*.70}\protected@file@percent }
\@writefile{toc}{\contentsline {section}{\numberline {3.6}Creation of other keys}{38}{section.3.6}\protected@file@percent }
\@writefile{toc}{\contentsline {paragraph}{}{38}{paragraph*.71}\protected@file@percent }
\@writefile{toc}{\contentsline {paragraph}{}{38}{paragraph*.72}\protected@file@percent }
\@writefile{lof}{\contentsline {figure}{\numberline {3.2}{\ignorespaces Initialization of processor keys}}{39}{figure.3.2}\protected@file@percent }
\newlabel{fig:proc_init}{{3.2}{39}{Initialization of processor keys}{figure.3.2}{}}
\@writefile{toc}{\contentsline {section}{\numberline {3.7}Solution usage}{39}{section.3.7}\protected@file@percent }
\@writefile{toc}{\contentsline {paragraph}{}{39}{paragraph*.73}\protected@file@percent }
\@writefile{toc}{\contentsline {paragraph}{}{39}{paragraph*.74}\protected@file@percent }
\@writefile{toc}{\contentsline {paragraph}{}{40}{paragraph*.75}\protected@file@percent }
\@writefile{toc}{\contentsline {chapter}{\numberline {4}Tests}{41}{chapter.4}\protected@file@percent }
\@writefile{lof}{\addvspace {10\p@ }}
\@writefile{lot}{\addvspace {10\p@ }}
\@writefile{toc}{\contentsline {paragraph}{}{41}{paragraph*.76}\protected@file@percent }
\@writefile{toc}{\contentsline {section}{\numberline {4.1}Unit tests}{41}{section.4.1}\protected@file@percent }
\@writefile{toc}{\contentsline {paragraph}{}{41}{paragraph*.77}\protected@file@percent }
\@writefile{toc}{\contentsline {section}{\numberline {4.2}Workflow test}{42}{section.4.2}\protected@file@percent }
\@writefile{toc}{\contentsline {paragraph}{}{42}{paragraph*.78}\protected@file@percent }
\@writefile{toc}{\contentsline {subsection}{\numberline {4.2.1}Bitcoin testnet}{42}{subsection.4.2.1}\protected@file@percent }
\@writefile{toc}{\contentsline {paragraph}{}{42}{paragraph*.79}\protected@file@percent }
\@writefile{toc}{\contentsline {paragraph}{}{43}{paragraph*.80}\protected@file@percent }
\@writefile{lof}{\contentsline {figure}{\numberline {4.1}{\ignorespaces Example of program test runtime}}{43}{figure.4.1}\protected@file@percent }
\newlabel{fig:program_runtime}{{4.1}{43}{Example of program test runtime}{figure.4.1}{}}
\@writefile{toc}{\contentsline {subsection}{\numberline {4.2.2}Speed}{43}{subsection.4.2.2}\protected@file@percent }
\@writefile{toc}{\contentsline {paragraph}{}{43}{paragraph*.81}\protected@file@percent }
\@writefile{toc}{\contentsline {section}{\numberline {4.3}Vulnerabilities}{44}{section.4.3}\protected@file@percent }
\@writefile{toc}{\contentsline {paragraph}{}{44}{paragraph*.82}\protected@file@percent }
\@writefile{toc}{\contentsline {paragraph}{}{44}{paragraph*.83}\protected@file@percent }
\@writefile{toc}{\contentsline {paragraph}{}{44}{paragraph*.84}\protected@file@percent }
\@writefile{toc}{\contentsline {paragraph}{}{45}{paragraph*.85}\protected@file@percent }
\@writefile{toc}{\contentsline {chapter}{\numberline {5}Conclusion}{46}{chapter.5}\protected@file@percent }
\@writefile{lof}{\addvspace {10\p@ }}
\@writefile{lot}{\addvspace {10\p@ }}
\@writefile{toc}{\contentsline {paragraph}{}{46}{paragraph*.86}\protected@file@percent }
\bibstyle{plain}
\bibdata{references}
