\addvspace {10\p@ }
\contentsline {figure}{\numberline {1.1}{\ignorespaces Example of a blockchain structure}}{4}{figure.1.1}%
\contentsline {figure}{\numberline {1.2}{\ignorespaces Transaction with one output, when the whole value of inputs is spent}}{9}{figure.1.2}%
\contentsline {figure}{\numberline {1.3}{\ignorespaces Transaction with two outputs, when the remaining value of inputs comes back to payer address}}{9}{figure.1.3}%
\addvspace {10\p@ }
\contentsline {figure}{\numberline {2.1}{\ignorespaces System architecture diagram}}{17}{figure.2.1}%
\contentsline {figure}{\numberline {2.2}{\ignorespaces Request Message structure}}{19}{figure.2.2}%
\contentsline {figure}{\numberline {2.3}{\ignorespaces Response Message structure}}{20}{figure.2.3}%
\contentsline {figure}{\numberline {2.4}{\ignorespaces Key processing scheme}}{22}{figure.2.4}%
\contentsline {figure}{\numberline {2.5}{\ignorespaces Key refresh scheme}}{23}{figure.2.5}%
\addvspace {10\p@ }
\contentsline {figure}{\numberline {3.1}{\ignorespaces Seed generated by Electrum during wallet creation}}{37}{figure.3.1}%
\contentsline {figure}{\numberline {3.2}{\ignorespaces Initialization of processor keys}}{39}{figure.3.2}%
\addvspace {10\p@ }
\contentsline {figure}{\numberline {4.1}{\ignorespaces Example of program test runtime}}{43}{figure.4.1}%
\addvspace {10\p@ }
